…
#### Diversity

``` r
(ssap <- rerare(spe$its_raw, meta$its_raw, primary_lifestyle, "soil_saprotroph", sites))
```

    ## $seq_depth
    ## [1] 3586
    ## 
    ## $zero_otu_num
    ## [1] 6
    ## 
    ## $rrfd
    ## # A tibble: 25 × 245
    ##    field_key otu_2 otu_9 otu_14 otu_27 otu_37 otu_41 otu_47 otu_49 otu_55 otu_59
    ##        <dbl> <dbl> <dbl>  <dbl>  <dbl>  <dbl>  <dbl>  <dbl>  <dbl>  <dbl>  <dbl>
    ##  1         1   716     0     97      2    181     18    841      0    613      0
    ##  2         2  1464     0    452      2    142     66      0      0      0      0
    ##  3         3     7    29    413      0    246    471      0      0      0    280
    ##  4         4     0     0      0      0    281    220     20      0     20      0
    ##  5         5   118    47      0      0    122     35      0      0      0    220
    ##  6         6   143  1289    360    143     22    261      0      0      0     74
    ##  7         7   326  2261     44     46    100     50      0      2      0    207
    ##  8         8   601    38    373     71    219     62     19      0      0     25
    ##  9         9   708     0    295      2     96     48    978      0    743      9
    ## 10        10   570     0    307      0     45     68    383      0   1225      0
    ## # … with 15 more rows, and 234 more variables: otu_61 <dbl>, otu_66 <dbl>,
    ## #   otu_70 <dbl>, otu_75 <dbl>, otu_79 <dbl>, otu_88 <dbl>, otu_89 <dbl>,
    ## #   otu_100 <dbl>, otu_102 <dbl>, otu_106 <dbl>, otu_114 <dbl>, otu_132 <dbl>,
    ## #   otu_134 <dbl>, otu_140 <dbl>, otu_144 <dbl>, otu_154 <dbl>, otu_168 <dbl>,
    ## #   otu_170 <dbl>, otu_180 <dbl>, otu_182 <dbl>, otu_192 <dbl>, otu_195 <dbl>,
    ## #   otu_209 <dbl>, otu_216 <dbl>, otu_221 <dbl>, otu_223 <dbl>, otu_224 <dbl>,
    ## #   otu_234 <dbl>, otu_276 <dbl>, otu_280 <dbl>, otu_283 <dbl>, …
    ## 
    ## $rrfd_speTaxa
    ## # A tibble: 935 × 14
    ##    field_key otu_num seq_abund phylum   class order family genus species prima…¹
    ##        <dbl> <chr>       <dbl> <chr>    <chr> <chr> <chr>  <chr> <chr>   <chr>  
    ##  1         1 otu_2         716 Mortier… Mort… Mort… Morti… Mort… Mortie… soil_s…
    ##  2         1 otu_14         97 Mortier… Mort… Mort… Morti… Mort… <NA>    soil_s…
    ##  3         1 otu_27          2 Basidio… Trem… Filo… Pisku… Soli… <NA>    soil_s…
    ##  4         1 otu_37        181 Mortier… Mort… Mort… Morti… Mort… <NA>    soil_s…
    ##  5         1 otu_41         18 Mortier… Mort… Mort… Morti… Mort… Mortie… soil_s…
    ##  6         1 otu_47        841 Ascomyc… Geog… Geog… Geogl… Geog… uniden… soil_s…
    ##  7         1 otu_55        613 Basidio… Agar… Agar… Hygro… Hygr… <NA>    soil_s…
    ##  8         1 otu_75          4 Basidio… Trem… Filo… Pisku… Soli… Solico… soil_s…
    ##  9         1 otu_79         55 Mortier… Mort… Mort… Morti… Mort… <NA>    soil_s…
    ## 10         1 otu_114        65 Mortier… Mort… Mort… Morti… Mort… uniden… soil_s…
    ## # … with 925 more rows, 4 more variables: field_name <chr>, region <chr>,
    ## #   field_type <ord>, yr_since <dbl>, and abbreviated variable name
    ## #   ¹​primary_lifestyle
…
#### Diversity

``` r
(ppat <- rerare(spe$its_raw, meta$its_raw, primary_lifestyle, "plant_pathogen", sites))
```

    ## $seq_depth
    ## [1] 2786
    ## 
    ## $zero_otu_num
    ## [1] 7
    ## 
    ## $rrfd
    ## # A tibble: 25 × 154
    ##    field_key otu_1 otu_3 otu_7 otu_13 otu_16 otu_21 otu_23 otu_28 otu_33 otu_43
    ##        <dbl> <dbl> <dbl> <dbl>  <dbl>  <dbl>  <dbl>  <dbl>  <dbl>  <dbl>  <dbl>
    ##  1         1   477    32  1583      8     56      0    164      0     29     12
    ##  2         2   819   255   139    200     64      6    100      9    226     29
    ##  3         3   115   121    61    749    230    755     71     55     40     48
    ##  4         4   728     2   691      0      0      0     60      0     37      0
    ##  5         5   120   100  1179     46    117     36     27     29     45     71
    ##  6         6   521    79   519      5    258    514    127     56     16    103
    ##  7         7   417   449    39    232    312    212     88    212     83     68
    ##  8         8   679   289   572     70     46     50     29     41    170     43
    ##  9         9   722   426   389    100     17      0    331      0    110      5
    ## 10        10   497   600   699     60     11      1     36      0    142      0
    ## # … with 15 more rows, and 143 more variables: otu_53 <dbl>, otu_58 <dbl>,
    ## #   otu_65 <dbl>, otu_68 <dbl>, otu_87 <dbl>, otu_99 <dbl>, otu_135 <dbl>,
    ## #   otu_137 <dbl>, otu_153 <dbl>, otu_172 <dbl>, otu_179 <dbl>, otu_200 <dbl>,
    ## #   otu_212 <dbl>, otu_279 <dbl>, otu_285 <dbl>, otu_289 <dbl>, otu_294 <dbl>,
    ## #   otu_304 <dbl>, otu_315 <dbl>, otu_319 <dbl>, otu_325 <dbl>, otu_332 <dbl>,
    ## #   otu_383 <dbl>, otu_391 <dbl>, otu_408 <dbl>, otu_416 <dbl>, otu_425 <dbl>,
    ## #   otu_432 <dbl>, otu_504 <dbl>, otu_511 <dbl>, otu_521 <dbl>, …
    ## 
    ## $rrfd_speTaxa
    ## # A tibble: 848 × 14
    ##    field_key otu_num seq_abund phylum   class order family genus species prima…¹
    ##        <dbl> <chr>       <dbl> <chr>    <chr> <chr> <chr>  <chr> <chr>   <chr>  
    ##  1         1 otu_1         477 Ascomyc… Sord… Hypo… Nectr… Fusa… Fusari… plant_…
    ##  2         1 otu_3          32 Ascomyc… Sord… Glom… Plect… Gibe… <NA>    plant_…
    ##  3         1 otu_7        1583 Ascomyc… Doth… Pleo… Peric… Peri… <NA>    plant_…
    ##  4         1 otu_13          8 Ascomyc… Sord… Glom… Plect… Plec… Plecto… plant_…
    ##  5         1 otu_16         56 Ascomyc… Sord… Hypo… Nectr… Nect… Nectri… plant_…
    ##  6         1 otu_23        164 Ascomyc… Doth… Pleo… Pleos… Alte… <NA>    plant_…
    ##  7         1 otu_33         29 Ascomyc… Sord… Hypo… Nectr… Fusa… <NA>    plant_…
    ##  8         1 otu_43         12 Ascomyc… Sord… Hypo… Nectr… Fusa… Fusari… plant_…
    ##  9         1 otu_58         26 Ascomyc… Doth… Pleo… Phaeo… Para… <NA>    plant_…
    ## 10         1 otu_65          4 Ascomyc… Sord… Hypo… Nectr… Gibb… Gibber… plant_…
    ## # … with 838 more rows, 4 more variables: field_name <chr>, region <chr>,
    ## #   field_type <ord>, yr_since <dbl>, and abbreviated variable name
    ## #   ¹​primary_lifestyle
…
#### Diversity

``` r
(wsap <- rerare(spe$its_raw, meta$its_raw, primary_lifestyle, "wood_saprotroph", sites))
```

    ## $seq_depth
    ## [1] 701
    ## 
    ## $zero_otu_num
    ## [1] 6
    ## 
    ## $rrfd
    ## # A tibble: 25 × 119
    ##    field_key otu_11 otu_20 otu_29 otu_39 otu_76 otu_117 otu_120 otu_130 otu_169
    ##        <dbl>  <dbl>  <dbl>  <dbl>  <dbl>  <dbl>   <dbl>   <dbl>   <dbl>   <dbl>
    ##  1         1      0     42    225    177      0      11       0     122       0
    ##  2         2     23    182      9    129    182      11       8       0       1
    ##  3         3     95    212      0     11      9       0       0       0       0
    ##  4         4      0     71     47    302      0       0       0       0       0
    ##  5         5     25     40      0    382      0       0       0      85      44
    ##  6         6    494      1    143      9      0      10       0       0       0
    ##  7         7    135    302     46     16      6       0       0       0       0
    ##  8         8     29     69     37    213      0      18       0       0       0
    ##  9         9     24     24    128    211      0       0       9      55       0
    ## 10        10      9     54     77    161      8       5     101     147       0
    ## # … with 15 more rows, and 109 more variables: otu_202 <dbl>, otu_252 <dbl>,
    ## #   otu_266 <dbl>, otu_287 <dbl>, otu_322 <dbl>, otu_329 <dbl>, otu_331 <dbl>,
    ## #   otu_333 <dbl>, otu_341 <dbl>, otu_365 <dbl>, otu_370 <dbl>, otu_397 <dbl>,
    ## #   otu_415 <dbl>, otu_437 <dbl>, otu_438 <dbl>, otu_487 <dbl>, otu_508 <dbl>,
    ## #   otu_589 <dbl>, otu_599 <dbl>, otu_606 <dbl>, otu_632 <dbl>, otu_633 <dbl>,
    ## #   otu_634 <dbl>, otu_703 <dbl>, otu_770 <dbl>, otu_786 <dbl>, otu_790 <dbl>,
    ## #   otu_793 <dbl>, otu_818 <dbl>, otu_852 <dbl>, otu_853 <dbl>, …
    ## 
    ## $rrfd_speTaxa
    ## # A tibble: 465 × 14
    ##    field_key otu_num seq_abund phylum   class order family genus species prima…¹
    ##        <dbl> <chr>       <dbl> <chr>    <chr> <chr> <chr>  <chr> <chr>   <chr>  
    ##  1         1 otu_20         42 Ascomyc… Sord… Hypo… Bione… Clon… <NA>    wood_s…
    ##  2         1 otu_29        225 Ascomyc… Sord… Hypo… Nectr… Mari… Marian… wood_s…
    ##  3         1 otu_39        177 Ascomyc… Doth… Pleo… Cucur… Pyre… uniden… wood_s…
    ##  4         1 otu_117        11 Ascomyc… Doth… Pleo… Lindg… Cloh… Clohes… wood_s…
    ##  5         1 otu_130       122 Basidio… Agar… Trec… Hydno… Subu… <NA>    wood_s…
    ##  6         1 otu_333         4 Ascomyc… Leot… Helo… Helot… Scyt… uniden… wood_s…
    ##  7         1 otu_415        30 Ascomyc… Leot… Helo… Helot… Scyt… Scytal… wood_s…
    ##  8         1 otu_508        15 Ascomyc… Doth… Pleo… Lenti… Keis… Keissl… wood_s…
    ##  9         1 otu_599         5 Ascomyc… Doth… Pleo… Didym… Para… Paraph… wood_s…
    ## 10         1 otu_633         6 Ascomyc… Doth… Pleo… Lenti… Keis… Keissl… wood_s…
    ## # … with 455 more rows, 4 more variables: field_name <chr>, region <chr>,
    ## #   field_type <ord>, yr_since <dbl>, and abbreviated variable name
    ## #   ¹​primary_lifestyle
…
#### Diversity

``` r
(lsap <- rerare(spe$its_raw, meta$its_raw, primary_lifestyle, "litter_saprotroph", sites))
```

    ## $seq_depth
    ## [1] 297
    ## 
    ## $zero_otu_num
    ## [1] 18
    ## 
    ## $rrfd
    ## # A tibble: 25 × 124
    ##    field_key otu_18 otu_105 otu_126 otu_133 otu_147 otu_151 otu_225 otu_226
    ##        <dbl>  <dbl>   <dbl>   <dbl>   <dbl>   <dbl>   <dbl>   <dbl>   <dbl>
    ##  1         1    114       0      14       0       0      97       4       0
    ##  2         2     85      88       1       0      23       0       2      41
    ##  3         3     59      28     163       0       0       0       9       0
    ##  4         4     25       0       0       0       0       0       0       0
    ##  5         5     27       0      53       0       0       0      14       0
    ##  6         6     82       0     100       0      27       0      46       0
    ##  7         7     61       0     129       0      29       0       0       0
    ##  8         8      7       0      15     200       5       0       1       0
    ##  9         9     60       0       0       0       0       0       0       0
    ## 10        10     62      24       0       0       0      64       0       0
    ## # … with 15 more rows, and 115 more variables: otu_265 <dbl>, otu_267 <dbl>,
    ## #   otu_272 <dbl>, otu_286 <dbl>, otu_302 <dbl>, otu_326 <dbl>, otu_358 <dbl>,
    ## #   otu_393 <dbl>, otu_414 <dbl>, otu_445 <dbl>, otu_457 <dbl>, otu_484 <dbl>,
    ## #   otu_503 <dbl>, otu_542 <dbl>, otu_551 <dbl>, otu_560 <dbl>, otu_574 <dbl>,
    ## #   otu_608 <dbl>, otu_618 <dbl>, otu_623 <dbl>, otu_653 <dbl>, otu_660 <dbl>,
    ## #   otu_698 <dbl>, otu_707 <dbl>, otu_729 <dbl>, otu_732 <dbl>, otu_761 <dbl>,
    ## #   otu_766 <dbl>, otu_789 <dbl>, otu_804 <dbl>, otu_827 <dbl>, …
    ## 
    ## $rrfd_speTaxa
    ## # A tibble: 433 × 14
    ##    field_key otu_num seq_abund phylum   class order family genus species prima…¹
    ##        <dbl> <chr>       <dbl> <chr>    <chr> <chr> <chr>  <chr> <chr>   <chr>  
    ##  1         1 otu_18        114 Ascomyc… Doth… Capn… Clado… Clad… <NA>    litter…
    ##  2         1 otu_126        14 Ascomyc… Sord… Sord… Chaet… Chae… <NA>    litter…
    ##  3         1 otu_151        97 Basidio… Agar… Agar… Entol… Clit… uniden… litter…
    ##  4         1 otu_225         4 Chytrid… Rhiz… Rhiz… Rhizo… Rhiz… Rhizop… litter…
    ##  5         1 otu_265         6 Chytrid… Rhiz… Rhiz… Rhizo… Rhiz… uniden… litter…
    ##  6         1 otu_272        14 Ascomyc… Doth… Pleo… Phaeo… Neos… <NA>    litter…
    ##  7         1 otu_286         6 Ascomyc… Doth… Pleo… Phaeo… Neos… <NA>    litter…
    ##  8         1 otu_326         4 Ascomyc… Doth… Pleo… Dicty… Dict… Dictyo… litter…
    ##  9         1 otu_414         2 Ascomyc… Euro… Chae… Cyphe… Cyph… <NA>    litter…
    ## 10         1 otu_457         2 Ascomyc… Euro… Chae… Cyphe… Cyph… uniden… litter…
    ## # … with 423 more rows, 4 more variables: field_name <chr>, region <chr>,
    ## #   field_type <ord>, yr_since <dbl>, and abbreviated variable name
    ## #   ¹​primary_lifestyle
…
