…
    ## 
    ## $correction_note
    ## [1] "There were no negative eigenvalues. No correction was applied"
    ## 
    ## $values
    ##   Dim Eigenvalues Relative_eig Broken_stick Cumul_eig Cumul_br_stick
    ## 1   1    2.141085   0.11526197   0.08352022 0.1152620     0.08352022
    ## 2   2    1.427693   0.07685761   0.06533840 0.1921196     0.14885863
    ## 3   3    1.029600   0.05542691   0.05624749 0.2475465     0.20510612
    ## 
    ## $eigenvalues
    ## [1] 11.5  7.7
    ## 
    ## $site_vectors
    ## # A tibble: 56 × 5
    ##    field_key sample_key  Axis.1  Axis.2 yr_since
    ##        <dbl> <chr>        <dbl>   <dbl>    <dbl>
    ##  1         1 1          -0.192  -0.195        16
    ##  2         1 2          -0.214  -0.0466       16
    ##  3         1 4          -0.184  -0.0670       16
    ##  4         1 5          -0.278  -0.141        16
    ##  5         1 6          -0.324  -0.163        16
    ##  6         1 7          -0.100  -0.0791       16
    ##  7         1 9          -0.211  -0.152        16
    ##  8         1 10         -0.245  -0.0307       16
    ##  9         2 1           0.244   0.221         3
    ## 10         2 2           0.0916  0.0800        3
    ## # ℹ 46 more rows
    ## 
    ## $broken_stick_plot
…
    ## 3    3    3.328468 3.387105   0.04094464   0.02206064   0.17266698   0.07628292
    ## 4    4    2.646543 2.705180   0.03270127   0.02037713   0.20536825   0.09666005
    ## 5    5    2.154798 2.213435   0.02675686   0.01911451   0.23212511   0.11577456
    ## 6    6    2.024480 2.083117   0.02518153   0.01810441   0.25730664   0.13387896
    ## 7    7    1.695887 1.754523   0.02120936   0.01726266   0.27851600   0.15114162
    ## 8    8    1.478246 1.536883   0.01857844   0.01654115   0.29709444   0.16768277
    ## 9    9    1.332238 1.390874   0.01681343   0.01590984   0.31390787   0.18359262
    ## 10  10    1.304042 1.362678   0.01647259   0.01534867   0.33038046   0.19894129
    ## 11  11    1.162318 1.220955   0.01475937   0.01484362   0.34513984   0.21378492
    ## 
    ## $eigenvalues
    ## [1] 8.1 5.1
    ## 
    ## $site_vectors
    ## # A tibble: 200 × 16
    ##    field_key sample_key  Axis.1   Axis.2  Axis.3  Axis.4  Axis.5  Axis.6  Axis.7
    ##        <dbl> <chr>        <dbl>    <dbl>   <dbl>   <dbl>   <dbl>   <dbl>   <dbl>
    ##  1         1 1           0.178  -0.125   -0.0387 -0.0709  0.0742 -0.109  -0.154 
    ##  2         1 2           0.219   0.0781  -0.0188 -0.0121  0.0119 -0.217  -0.0249
    ##  3         1 4           0.189  -0.0433  -0.0129  0.0214 -0.0201 -0.123  -0.0628
    ##  4         1 5           0.175  -0.0120  -0.126  -0.202  -0.0190  0.0235 -0.107 
    ##  5         1 6           0.205   0.0126  -0.118  -0.169   0.0227 -0.177  -0.268 
    ##  6         1 7           0.0467 -0.0510   0.0236 -0.109  -0.0366  0.0205 -0.125 
    ##  7         1 9           0.117  -0.0848  -0.0643 -0.0979  0.0631 -0.0364 -0.130 
    ##  8         1 10          0.186   0.0157  -0.0734 -0.0480 -0.0242 -0.0235 -0.0929
    ##  9         2 1          -0.0528 -0.00984  0.329   0.0503 -0.0784  0.0143  0.0496
    ## 10         2 2          -0.0460  0.0476   0.0864  0.0210 -0.134  -0.136  -0.0177
    ## # ℹ 190 more rows
    ## # ℹ 7 more variables: Axis.8 <dbl>, Axis.9 <dbl>, Axis.10 <dbl>,
    ## #   field_name <chr>, region <chr>, field_type <ord>, yr_since <dbl>
    ## 
    ## $broken_stick_plot
…
    ## [1] "There were no negative eigenvalues. No correction was applied"
    ## 
    ## $values
    ##   Dim Eigenvalues Relative_eig Broken_stick Cumul_eig Cumul_br_stick
    ## 1   1   2.9643344   0.11598498   0.06826650 0.1159850      0.0682665
    ## 2   2   1.8319853   0.07167976   0.05418199 0.1876647      0.1224485
    ## 3   3   1.6118996   0.06306851   0.04713974 0.2507332      0.1695882
    ## 4   4   1.1131856   0.04355541   0.04244490 0.2942887      0.2120331
    ## 5   5   0.9934423   0.03887024   0.03892377 0.3331589      0.2509569
    ## 
    ## $eigenvalues
    ## [1] 11.6  7.2
    ## 
    ## $site_vectors
    ## # A tibble: 72 × 10
    ##    field_key sample_key  Axis.1   Axis.2  Axis.3  Axis.4 field_name region
    ##        <dbl> <chr>        <dbl>    <dbl>   <dbl>   <dbl> <chr>      <chr> 
    ##  1         1 1          -0.0849  0.131   -0.290   0.0297 BBRP1      BM    
    ##  2         1 2          -0.159   0.0973  -0.154  -0.0364 BBRP1      BM    
    ##  3         1 4          -0.0893  0.132   -0.200  -0.0937 BBRP1      BM    
    ##  4         1 5          -0.207  -0.00291 -0.219   0.220  BBRP1      BM    
    ##  5         1 6          -0.193   0.0393  -0.307   0.0346 BBRP1      BM    
    ##  6         1 7          -0.0286  0.0602  -0.139   0.142  BBRP1      BM    
    ##  7         1 9          -0.103   0.0615  -0.253   0.0722 BBRP1      BM    
    ##  8         1 10         -0.167   0.0759  -0.162   0.0434 BBRP1      BM    
    ##  9         2 1           0.189   0.232    0.223  -0.0882 ERRP1      BM    
    ## 10         2 2           0.112   0.0186   0.0634 -0.0607 ERRP1      BM    
    ## # ℹ 62 more rows
    ## # ℹ 2 more variables: field_type <ord>, yr_since <dbl>
    ## 
    ## $broken_stick_plot
…
    ## 
    ## $correction_note
    ## [1] "There were no negative eigenvalues. No correction was applied"
    ## 
    ## $values
    ##   Dim Eigenvalues Relative_eig Broken_stick Cumul_eig Cumul_br_stick
    ## 1   1   1.9261547   0.26589636   0.16236050 0.2658964      0.1623605
    ## 2   2   0.8595206   0.11865267   0.11888224 0.3845490      0.2812427
    ## 3   3   0.4437595   0.06125886   0.09714311 0.4458079      0.3783858
    ## 
    ## $eigenvalues
    ## [1] 26.6 11.9
    ## 
    ## $site_vectors
    ## # A tibble: 24 × 8
    ##    field_key sample_key Axis.1   Axis.2 field_name region field_type yr_since
    ##        <dbl> <chr>       <dbl>    <dbl> <chr>      <chr>  <ord>         <dbl>
    ##  1         3 1          -0.367 -0.00792 FGC1       FG     corn             NA
    ##  2         3 2          -0.407 -0.0850  FGC1       FG     corn             NA
    ##  3         3 3          -0.429 -0.0579  FGC1       FG     corn             NA
    ##  4         3 5          -0.331 -0.00673 FGC1       FG     corn             NA
    ##  5         3 6          -0.409 -0.0442  FGC1       FG     corn             NA
    ##  6         3 7          -0.420  0.00875 FGC1       FG     corn             NA
    ##  7         3 9          -0.414 -0.0761  FGC1       FG     corn             NA
    ##  8         3 10         -0.382  0.0102  FGC1       FG     corn             NA
    ##  9         4 1           0.261 -0.268   FGREM1     FG     remnant          NA
    ## 10         4 2           0.294 -0.248   FGREM1     FG     remnant          NA
    ## # ℹ 14 more rows
    ## 
    ## $broken_stick_plot
…
    ## 
    ## $correction_note
    ## [1] "Lingoes correction applied to negative eigenvalues: D' = -0.5*D^2 - 0.0178526765158346 , except diagonal elements"
    ## 
    ## $values
    ##   Dim Eigenvalues Corr_eig Rel_corr_eig Broken_stick Cum_corr_eig Cum_br_stick
    ## 1   1    3.553783 3.571636   0.14403460   0.06904053    0.1440346   0.06904053
    ## 2   2    2.544772 2.562624   0.10334384   0.05475481    0.2473784   0.12379534
    ## 3   3    1.073956 1.091809   0.04402976   0.04761195    0.2914082   0.17140729
    ## 
    ## $eigenvalues
    ## [1] 14.4 10.3
    ## 
    ## $site_vectors
    ## # A tibble: 72 × 8
    ##    field_key sample_key Axis.1  Axis.2 field_name region field_type yr_since
    ##        <dbl> <chr>       <dbl>   <dbl> <chr>      <chr>  <ord>         <dbl>
    ##  1         6 1          -0.435  0.0237 FLC1       FL     corn             NA
    ##  2         6 2          -0.400 -0.0113 FLC1       FL     corn             NA
    ##  3         6 4          -0.430  0.0373 FLC1       FL     corn             NA
    ##  4         6 5          -0.422  0.0325 FLC1       FL     corn             NA
    ##  5         6 6          -0.298 -0.0221 FLC1       FL     corn             NA
    ##  6         6 7          -0.384  0.0401 FLC1       FL     corn             NA
    ##  7         6 9          -0.345  0.0574 FLC1       FL     corn             NA
    ##  8         6 10         -0.345 -0.0209 FLC1       FL     corn             NA
    ##  9         7 1          -0.432  0.106  FLC2       FL     corn             NA
    ## 10         7 3          -0.404  0.119  FLC2       FL     corn             NA
    ## # ℹ 62 more rows
    ## 
    ## $broken_stick_plot
…
    ## $correction_note
    ## [1] "There were no negative eigenvalues. No correction was applied"
    ## 
    ## $values
    ##   Dim Eigenvalues Relative_eig Broken_stick Cumul_eig Cumul_br_stick
    ## 1   1   1.3451849   0.15690313   0.12991114 0.1569031      0.1299111
    ## 2   2   0.9382020   0.10943241   0.09765307 0.2663355      0.2275642
    ## 3   3   0.7176612   0.08370841   0.08152404 0.3500440      0.3090882
    ## 4   4   0.4858044   0.05666450   0.07077135 0.4067085      0.3798596
    ## 
    ## $eigenvalues
    ## [1] 15.7 10.9
    ## 
    ## $site_vectors
    ## # A tibble: 32 × 9
    ##    field_key sample_key Axis.1 Axis.2  Axis.3 field_name region field_type
    ##        <dbl> <chr>       <dbl>  <dbl>   <dbl> <chr>      <chr>  <ord>     
    ##  1        16 1          -0.236 0.0935 -0.184  LPC1       LP     corn      
    ##  2        16 3          -0.225 0.122  -0.171  LPC1       LP     corn      
    ##  3        16 5          -0.259 0.0900 -0.177  LPC1       LP     corn      
    ##  4        16 6          -0.266 0.102  -0.141  LPC1       LP     corn      
    ##  5        16 7          -0.248 0.0775 -0.143  LPC1       LP     corn      
    ##  6        16 8          -0.200 0.0340 -0.220  LPC1       LP     corn      
    ##  7        16 9          -0.249 0.0783 -0.119  LPC1       LP     corn      
    ##  8        16 10         -0.185 0.0531 -0.136  LPC1       LP     corn      
    ##  9        17 1           0.246 0.144   0.0949 LPREM1     LP     remnant   
    ## 10        17 2           0.291 0.204   0.0188 LPREM1     LP     remnant   
    ## # ℹ 22 more rows
    ## # ℹ 1 more variable: yr_since <dbl>
    ## 
    ## $broken_stick_plot
…
    ## 
    ## $values
    ##   Dim Eigenvalues Corr_eig Rel_corr_eig Broken_stick Cum_corr_eig Cum_br_stick
    ## 1   1   2.7063211 2.819524   0.16208229   0.09442476    0.1620823   0.09442476
    ## 2   2   2.0640256 2.177228   0.12515948   0.07314817    0.2872418   0.16757293
    ## 3   3   0.9798528 1.093055   0.06283505   0.06250987    0.3500768   0.23008280
    ## 4   4   0.8946780 1.007881   0.05793872   0.05541767    0.4080155   0.28550047
    ## 5   5   0.8284124 0.941615   0.05412939   0.05009852    0.4621449   0.33559899
    ## 6   6   0.6123964 0.725599   0.04171156   0.04584320    0.5038565   0.38144219
    ## 
    ## $eigenvalues
    ## [1] 16.2 12.5
    ## 
    ## $site_vectors
    ## # A tibble: 49 × 8
    ##    field_key sample_key  Axis.1  Axis.2  Axis.3  Axis.4   Axis.5 yr_since
    ##        <dbl> <chr>        <dbl>   <dbl>   <dbl>   <dbl>    <dbl>    <dbl>
    ##  1         1 1          -0.125  -0.0631 -0.126  -0.103  -0.0672        16
    ##  2         1 2          -0.160  -0.308  -0.0892 -0.192  -0.0538        16
    ##  3         1 4          -0.471   0.192  -0.0884 -0.133   0.134         16
    ##  4         1 5          -0.0809 -0.332  -0.292  -0.0513  0.210         16
    ##  5         1 7          -0.263  -0.342  -0.0794 -0.159  -0.0236        16
    ##  6         1 8          -0.357   0.0900 -0.0588  0.104  -0.190         16
    ##  7         1 10         -0.390  -0.169  -0.0453 -0.141  -0.00111       16
    ##  8         2 1           0.0595 -0.302   0.330   0.155   0.0356         3
    ##  9         2 3           0.165  -0.138   0.0779  0.127  -0.0976         3
    ## 10         2 5           0.0289 -0.420   0.196  -0.0360  0.0851         3
    ## # ℹ 39 more rows
    ## 
    ## $broken_stick_plot
…
    ## 3    3    5.246161 5.605610   0.05009931   0.02447049    0.1734707   0.08497216
    ## 4    4    4.219016 4.578465   0.04091936   0.02254371    0.2143901   0.10751587
    ## 5    5    3.127413 3.486862   0.03116331   0.02109862    0.2455534   0.12861449
    ## 6    6    2.470697 2.830146   0.02529401   0.01994255    0.2708474   0.14855704
    ## 7    7    2.233959 2.593407   0.02317820   0.01897916    0.2940256   0.16753620
    ## 8    8    2.056173 2.415622   0.02158926   0.01815340    0.3156149   0.18568960
    ## 9    9    1.761203 2.120652   0.01895301   0.01743085    0.3345679   0.20312045
    ## 10  10    1.608313 1.967761   0.01758658   0.01678859    0.3521545   0.21990904
    ## 11  11    1.395898 1.755347   0.01568815   0.01621056    0.3678426   0.23611960
    ## 
    ## $eigenvalues
    ## [1] 7.2 5.1
    ## 
    ## $site_vectors
    ## # A tibble: 175 × 16
    ##    field_key sample_key  Axis.1   Axis.2  Axis.3   Axis.4  Axis.5   Axis.6
    ##        <dbl> <chr>        <dbl>    <dbl>   <dbl>    <dbl>   <dbl>    <dbl>
    ##  1         1 1          -0.0987 -0.0415   0.0210 -0.0715   0.195  -0.0407 
    ##  2         1 2          -0.101  -0.336    0.0285  0.0428   0.0839 -0.136  
    ##  3         1 4          -0.363  -0.0130   0.278  -0.149    0.139   0.0579 
    ##  4         1 5           0.0849 -0.338   -0.0842 -0.230    0.0925 -0.0926 
    ##  5         1 7          -0.180  -0.358    0.0462  0.0252   0.115  -0.00544
    ##  6         1 8          -0.350   0.00496  0.117  -0.111    0.0157  0.0251 
    ##  7         1 10         -0.335  -0.226    0.0989  0.00318  0.189   0.00736
    ##  8         2 1          -0.0339 -0.210   -0.278   0.141   -0.237   0.204  
    ##  9         2 3          -0.0152 -0.00195 -0.266   0.190    0.0256  0.0396 
    ## 10         2 5          -0.0474 -0.376   -0.251   0.182   -0.0182  0.106  
    ## # ℹ 165 more rows
    ## # ℹ 8 more variables: Axis.7 <dbl>, Axis.8 <dbl>, Axis.9 <dbl>, Axis.10 <dbl>,
    ## #   field_name <chr>, region <chr>, field_type <ord>, yr_since <dbl>
    ## 
    ## $broken_stick_plot
…
    ## 
    ## $values
    ##   Dim Eigenvalues  Corr_eig Rel_corr_eig Broken_stick Cum_corr_eig Cum_br_stick
    ## 1   1   3.8237409 3.9801515   0.15170440   0.07698793    0.1517044   0.07698793
    ## 2   2   2.3505034 2.5069139   0.09555161   0.06059449    0.2472560   0.13758242
    ## 3   3   1.8578334 2.0142439   0.07677338   0.05239777    0.3240294   0.18998019
    ## 4   4   1.1653433 1.3217539   0.05037896   0.04693329    0.3744083   0.23691348
    ## 5   5   0.9699419 1.1263525   0.04293119   0.04283493    0.4173395   0.27974840
    ## 6   6   0.7828558 0.9392663   0.03580035   0.03955624    0.4531399   0.31930464
    ## 
    ## $eigenvalues
    ## [1] 15.2  9.6
    ## 
    ## $site_vectors
    ## # A tibble: 63 × 11
    ##    field_key sample_key  Axis.1  Axis.2   Axis.3  Axis.4    Axis.5 field_name
    ##        <dbl> <chr>        <dbl>   <dbl>    <dbl>   <dbl>     <dbl> <chr>     
    ##  1         1 1          -0.111  -0.0179 -0.0915  -0.0420  0.0837   BBRP1     
    ##  2         1 2          -0.192  -0.207  -0.235   -0.137   0.0887   BBRP1     
    ##  3         1 4          -0.383   0.279   0.00243 -0.146  -0.0774   BBRP1     
    ##  4         1 5          -0.0880 -0.128  -0.425    0.0990 -0.132    BBRP1     
    ##  5         1 7          -0.285  -0.217  -0.235   -0.131   0.0233   BBRP1     
    ##  6         1 8          -0.337   0.127   0.0975   0.0506  0.0975   BBRP1     
    ##  7         1 10         -0.389  -0.0837 -0.0889  -0.154  -0.000683 BBRP1     
    ##  8         2 1           0.0218 -0.385   0.115   -0.0473 -0.225    ERRP1     
    ##  9         2 3           0.0983 -0.257   0.121    0.101   0.0225   ERRP1     
    ## 10         2 5          -0.0450 -0.463  -0.0524  -0.123  -0.139    ERRP1     
    ## # ℹ 53 more rows
    ## # ℹ 3 more variables: region <chr>, field_type <ord>, yr_since <dbl>
    ## 
    ## $broken_stick_plot
…
    ## $correction_note
    ## [1] "Lingoes correction applied to negative eigenvalues: D' = -0.5*D^2 - 0.0743328751373954 , except diagonal elements"
    ## 
    ## $values
    ##   Dim Eigenvalues  Corr_eig Rel_corr_eig Broken_stick Cum_corr_eig Cum_br_stick
    ## 1   1   1.8298566 1.9041895   0.28142752   0.18672314    0.2814275    0.1867231
    ## 2   2   0.9680232 1.0423561   0.15405383   0.13409156    0.4354814    0.3208147
    ## 3   3   0.6689469 0.7432798   0.10985219   0.10777577    0.5453336    0.4285905
    ## 4   4   0.4340836 0.5084165   0.07514084   0.09023191    0.6204744    0.5188224
    ## 
    ## $eigenvalues
    ## [1] 28.1 15.4
    ## 
    ## $site_vectors
    ## # A tibble: 21 × 9
    ##    field_key sample_key  Axis.1  Axis.2    Axis.3 field_name region field_type
    ##        <dbl> <chr>        <dbl>   <dbl>     <dbl> <chr>      <chr>  <ord>     
    ##  1         3 1          -0.317  -0.0804  0.235    FGC1       FG     corn      
    ##  2         3 2          -0.427   0.0424  0.196    FGC1       FG     corn      
    ##  3         3 4          -0.387  -0.134   0.0197   FGC1       FG     corn      
    ##  4         3 6          -0.362  -0.137  -0.131    FGC1       FG     corn      
    ##  5         3 7          -0.415  -0.0523 -0.000978 FGC1       FG     corn      
    ##  6         3 8          -0.321  -0.141  -0.0691   FGC1       FG     corn      
    ##  7         3 9          -0.388  -0.105  -0.0529   FGC1       FG     corn      
    ##  8         4 1          -0.146   0.153  -0.284    FGREM1     FG     remnant   
    ##  9         4 2           0.0797  0.414   0.0829   FGREM1     FG     remnant   
    ## 10         4 3           0.246   0.356   0.230    FGREM1     FG     remnant   
    ## # ℹ 11 more rows
    ## # ℹ 1 more variable: yr_since <dbl>
    ## 
    ## $broken_stick_plot
…
    ## $values
    ##   Dim Eigenvalues  Corr_eig Rel_corr_eig Broken_stick Cum_corr_eig Cum_br_stick
    ## 1   1   3.2451623 3.4177529   0.12198989   0.07698793    0.1219899   0.07698793
    ## 2   2   2.2888502 2.4614408   0.08785623   0.06059449    0.2098461   0.13758242
    ## 3   3   1.7087876 1.8813782   0.06715205   0.05239777    0.2769982   0.18998019
    ## 4   4   1.3684528 1.5410434   0.05500448   0.04693329    0.3320027   0.23691348
    ## 5   5   1.1391586 1.3117492   0.04682028   0.04283493    0.3788229   0.27974840
    ## 6   6   0.9516749 1.1242654   0.04012842   0.03955624    0.4189514   0.31930464
    ## 7   7   0.7767970 0.9493875   0.03388650   0.03682400    0.4528379   0.35612864
    ## 
    ## $eigenvalues
    ## [1] 12.2  8.8
    ## 
    ## $site_vectors
    ## # A tibble: 63 × 12
    ##    field_key sample_key Axis.1  Axis.2   Axis.3  Axis.4   Axis.5  Axis.6
    ##        <dbl> <chr>       <dbl>   <dbl>    <dbl>   <dbl>    <dbl>   <dbl>
    ##  1         6 2          -0.368  0.0266 -0.171    0.191   0.363    0.0205
    ##  2         6 4          -0.311 -0.104   0.153    0.295   0.165    0.0232
    ##  3         6 5          -0.262  0.115   0.342    0.320  -0.0550  -0.0843
    ##  4         6 6          -0.205 -0.126   0.00526  0.197   0.293    0.0804
    ##  5         6 7          -0.277  0.129   0.245    0.355   0.0968  -0.0958
    ##  6         6 8          -0.249 -0.0271  0.0196  -0.121  -0.00904 -0.0457
    ##  7         6 9          -0.420  0.108  -0.107   -0.0196  0.110   -0.0299
    ##  8         7 2          -0.267  0.416   0.249   -0.107  -0.110    0.0839
    ##  9         7 3          -0.315  0.349   0.105   -0.213  -0.111    0.246 
    ## 10         7 4          -0.378  0.194  -0.104   -0.0811 -0.108   -0.170 
    ## # ℹ 53 more rows
    ## # ℹ 4 more variables: field_name <chr>, region <chr>, field_type <ord>,
    ## #   yr_since <dbl>
    ## 
    ## $broken_stick_plot
…
