…
    ## 1   1    5.459222 5.698598   0.09182343   0.05272731   0.09182343   0.05272731
    ## 2   2    4.515201 4.754577   0.07661211   0.04252323   0.16843554   0.09525054
    ## 3   3    3.861102 4.100478   0.06607239   0.03742119   0.23450793   0.13267173
    ## 4   4    2.832896 3.072272   0.04950455   0.03401983   0.28401248   0.16669156
    ## 5   5    2.429150 2.668525   0.04299886   0.03146881   0.32701134   0.19816037
    ## 6   6    2.002904 2.242280   0.03613062   0.02942799   0.36314196   0.22758836
    ## 7   7    1.581212 1.820588   0.02933575   0.02772731   0.39247771   0.25531567
    ## 8   8    1.471967 1.711343   0.02757545   0.02626959   0.42005315   0.28158525
    ## 9   9    1.259275 1.498651   0.02414827   0.02499408   0.44420143   0.30657933
    ## 
    ## $eigenvalues
    ## [1] 9.2 7.7
    ## 
    ## $site_vectors
    ## # A tibble: 100 × 14
    ##    field_name sample Axis.1   Axis.2   Axis.3  Axis.4   Axis.5   Axis.6  Axis.7
    ##    <chr>      <chr>   <dbl>    <dbl>    <dbl>   <dbl>    <dbl>    <dbl>   <dbl>
    ##  1 BBRP1      1       0.187 -0.0166   0.0448  -0.218  -0.135    0.177   -0.0987
    ##  2 BBRP1      2       0.197 -0.161   -0.0776  -0.158  -0.182   -0.00690  0.110 
    ##  3 BBRP1      3       0.238 -0.00996  0.303   -0.170  -0.0680   0.00147 -0.189 
    ##  4 BBRP1      4       0.273 -0.0608   0.0985  -0.0400 -0.182    0.0263   0.110 
    ##  5 BBRP1      5       0.328 -0.150   -0.00837  0.0690 -0.00365 -0.0246   0.241 
    ##  6 BBRP1      6       0.187  0.00870 -0.0965  -0.232   0.0262   0.347   -0.0262
    ##  7 BBRP1      7       0.391 -0.153    0.199   -0.0722 -0.166    0.0299  -0.0251
    ##  8 BBRP1      8       0.155 -0.112   -0.0401  -0.235  -0.268   -0.00982  0.0622
    ##  9 BBRP1      9       0.347 -0.00687  0.256   -0.0694 -0.148    0.0362  -0.0699
    ## 10 BBRP1      10      0.120  0.0196   0.391   -0.236  -0.0491   0.00926  0.0880
    ## # ℹ 90 more rows
    ## # ℹ 5 more variables: Axis.8 <dbl>, field_key <dbl>, region <chr>,
    ## #   field_type <ord>, yr_since <chr>
    ## 
    ## $broken_stick_plot
…
    ##   Dim Eigenvalues Corr_eig Rel_corr_eig Broken_stick Cum_corr_eig Cum_br_stick
    ## 1   1   5.2316916 5.415819   0.13935824   0.07064792    0.1393582   0.07064792
    ## 2   2   3.3127760 3.496904   0.08998128   0.05594203    0.2293395   0.12658995
    ## 3   3   2.6259617 2.810089   0.07230838   0.04858909    0.3016479   0.17517904
    ## 4   4   2.0339894 2.218117   0.05707593   0.04368713    0.3587238   0.21886617
    ## 5   5   1.7019743 1.886102   0.04853261   0.04001066    0.4072564   0.25887684
    ## 6   6   1.3647727 1.548900   0.03985584   0.03706948    0.4471123   0.29594632
    ## 7   7   1.2217989 1.405927   0.03617688   0.03461850    0.4832892   0.33056482
    ## 8   8   0.9013046 1.085432   0.02793002   0.03251766    0.5112192   0.36308249
    ## 
    ## $eigenvalues
    ## [1] 13.9  9.0
    ## 
    ## $site_vectors
    ## # A tibble: 70 × 13
    ##    field_name sample Axis.1  Axis.2  Axis.3  Axis.4   Axis.5   Axis.6  Axis.7
    ##    <chr>      <chr>   <dbl>   <dbl>   <dbl>   <dbl>    <dbl>    <dbl>   <dbl>
    ##  1 BBRP1      1      0.162  -0.0452  0.180  -0.224   0.0301  -0.179    0.103 
    ##  2 BBRP1      2      0.174  -0.0953  0.0103 -0.178  -0.149    0.0856   0.160 
    ##  3 BBRP1      3      0.207   0.161   0.238  -0.104  -0.0732  -0.271   -0.0335
    ##  4 BBRP1      4      0.256   0.0949  0.0659 -0.182  -0.0782   0.0928   0.148 
    ##  5 BBRP1      5      0.322   0.0807 -0.0479 -0.0146  0.00858  0.201    0.0896
    ##  6 BBRP1      6      0.173  -0.177   0.144  -0.198   0.217   -0.161    0.108 
    ##  7 BBRP1      7      0.359   0.189   0.0936 -0.166  -0.0902  -0.0611   0.141 
    ##  8 BBRP1      8      0.132  -0.128   0.0605 -0.286  -0.216    0.0216   0.0675
    ##  9 BBRP1      9      0.318   0.206   0.177  -0.157  -0.0801  -0.107    0.168 
    ## 10 BBRP1      10     0.0910  0.234   0.428  -0.108  -0.0464  -0.00441  0.163 
    ## # ℹ 60 more rows
    ## # ℹ 4 more variables: field_key <dbl>, region <chr>, field_type <ord>,
    ## #   yr_since <chr>
    ## 
    ## $broken_stick_plot
…
