…
    ## $min_samples
    ## [1] 9
    ## 
    ## $spe_meta
    ## # A tibble: 3,175 × 9
    ##    otu_num otu_ID      phylum class order family genus species primary_lifestyle
    ##    <chr>   <chr>       <chr>  <chr> <chr> <chr>  <chr> <chr>   <chr>            
    ##  1 otu_1   352d386293… Ascom… Sord… Hypo… Nectr… Fusa… Fusari… plant_pathogen   
    ##  2 otu_2   a78342f18e… Morti… Mort… Mort… Morti… Mort… Mortie… soil_saprotroph  
    ##  3 otu_3   dabfbac17a… Ascom… Sord… Glom… Plect… Gibe… <NA>    plant_pathogen   
    ##  4 otu_4   bdee5c3cbc… Ascom… Euro… Chae… Herpo… unid… uniden… <NA>             
    ##  5 otu_5   73514f6e23… Ascom… Sord… Hypo… Nectr… <NA>  <NA>    <NA>             
    ##  6 otu_6   c92d481c3f… Ascom… Doth… Pleo… Didym… <NA>  <NA>    <NA>             
    ##  7 otu_7   204f1bd97d… Ascom… Doth… Pleo… Peric… Peri… <NA>    plant_pathogen   
    ##  8 otu_8   0ab6be0adc… Ascom… Euro… Chae… Herpo… unid… uniden… <NA>             
    ##  9 otu_9   3c7865fa95… Basid… Trem… Cyst… Mraki… Taus… Tauson… soil_saprotroph  
    ## 10 otu_10  caa87147e4… Ascom… <NA>  <NA>  <NA>   <NA>  <NA>    <NA>             
    ## # ℹ 3,165 more rows
    ## 
    ## $spe_samps_raw
    ## # A tibble: 225 × 3,127
    ##    field_key sample otu_1 otu_2 otu_3 otu_4 otu_5 otu_6 otu_7 otu_8 otu_9 otu_10
    ##        <dbl>  <dbl> <dbl> <dbl> <dbl> <dbl> <dbl> <dbl> <dbl> <dbl> <dbl>  <dbl>
    ##  1         1      1   170   241     8     0    45   469  1502     0     0    108
    ##  2         1      2    72  1320     0   231    28    42   502    10     0     80
    ##  3         1      3   144     0     0   426    16   159   166   798     0     34
    ##  4         1      4   102   842     3     0    19    80   239     0     0     31
    ##  5         1      5   153     0     4     0    27   203   498   274     0     98
    ##  6         1      6   117     0    13  2286    24   152   862     0     0     33
    ##  7         1      7   416    11    25     6    48   225   112     0     0    154
    ##  8         1      9   115    34    32     0    33   565   217     0     0     82
    ##  9         1     10    85   137    15    54    33   118   294     0     0    118
    ## 10         2      1   721   352   199     0    93     0    84     0     0    680
    ## # ℹ 215 more rows
    ## # ℹ 3,115 more variables: otu_11 <dbl>, otu_12 <dbl>, otu_13 <dbl>,
    ## #   otu_14 <dbl>, otu_15 <dbl>, otu_16 <dbl>, otu_17 <dbl>, otu_18 <dbl>,
    ## #   otu_19 <dbl>, otu_20 <dbl>, otu_21 <dbl>, otu_22 <dbl>, otu_23 <dbl>,
    ## #   otu_24 <dbl>, otu_25 <dbl>, otu_26 <dbl>, otu_27 <dbl>, otu_28 <dbl>,
    ## #   otu_29 <dbl>, otu_30 <dbl>, otu_31 <dbl>, otu_32 <dbl>, otu_33 <dbl>,
    ## #   otu_34 <dbl>, otu_35 <dbl>, otu_36 <dbl>, otu_37 <dbl>, otu_38 <dbl>, …
    ## 
    ## $depth_spe_samps_rfy
    ## [1] 1629
    ## 
    ## $spe_samps_rfy
    ## # A tibble: 225 × 2,765
    ##    field_key sample otu_1 otu_2 otu_3 otu_4 otu_5 otu_6 otu_7 otu_8 otu_9 otu_10
    ##        <dbl>  <dbl> <dbl> <dbl> <dbl> <dbl> <dbl> <dbl> <dbl> <dbl> <dbl>  <dbl>
    ##  1         1      1    30    37     3     0     9    83   251     0     0     23
    ##  2         1      2    19   307     0    61     6     9   124     3     0     23
    ##  3         1      3    42     0     0   125     7    50    44   210     0      9
    ##  4         1      4    26   191     0     0     3    18    59     0     0      5
    ##  5         1      5    37     0     3     0     8    40   104    50     0     18
    ##  6         1      6    29     0     3   490     7    37   207     0     0      8
    ##  7         1      7   106     5     5     1    14    50    32     0     0     34
    ##  8         1      9    30     6     8     0     9   158    70     0     0     25
    ##  9         1     10    24    29     2    10     8    28    79     0     0     31
    ## 10         2      1   160    61    40     0     9     0    21     0     0    140
    ## # ℹ 215 more rows
    ## # ℹ 2,753 more variables: otu_11 <dbl>, otu_12 <dbl>, otu_13 <dbl>,
    ## #   otu_14 <dbl>, otu_15 <dbl>, otu_16 <dbl>, otu_17 <dbl>, otu_18 <dbl>,
    ## #   otu_19 <dbl>, otu_20 <dbl>, otu_21 <dbl>, otu_22 <dbl>, otu_23 <dbl>,
    ## #   otu_24 <dbl>, otu_25 <dbl>, otu_26 <dbl>, otu_27 <dbl>, otu_28 <dbl>,
    ## #   otu_29 <dbl>, otu_30 <dbl>, otu_31 <dbl>, otu_32 <dbl>, otu_33 <dbl>,
    ## #   otu_34 <dbl>, otu_35 <dbl>, otu_36 <dbl>, otu_37 <dbl>, otu_38 <dbl>, …
    ## 
    ## $spe_raw
    ## # A tibble: 25 × 3,078
    ##    field_key otu_1 otu_2 otu_3 otu_4 otu_5 otu_6 otu_7 otu_8 otu_9 otu_10 otu_11
    ##        <dbl> <dbl> <dbl> <dbl> <dbl> <dbl> <dbl> <dbl> <dbl> <dbl>  <dbl>  <dbl>
    ##  1         1  1374  2585   100  3003   273  2013  4392  1082     0    738      0
    ##  2         2  4709  2575  1247    92   986   131   762     0    11   2520    235
    ##  3         3   593     7   567     0   854   435   413     0    30      0    716
    ##  4         4  2456    31     5     0  2233  3000  2161     0    85    917      0
    ##  5         5   745   191   665     0  2012  3948  6380     0   101   1381    231
    ##  6         6  1746   490   282     0   795  1044  1553     0  4117      6   3906
    ##  7         7  1914  1999  1639     9  1008  3690   134     0 12627      0    434
    ##  8         8  2198   785  1067  1395  1244  1815  2211     0    38   2189    137
    ##  9         9  2954  1581  1446  1143   306  1765  1397    27     0    777     79
    ## 10        10  1187  1170  1108   586   318  1087  1762  2037     0    403     34
    ## # ℹ 15 more rows
    ## # ℹ 3,066 more variables: otu_12 <dbl>, otu_13 <dbl>, otu_14 <dbl>,
    ## #   otu_15 <dbl>, otu_16 <dbl>, otu_17 <dbl>, otu_18 <dbl>, otu_19 <dbl>,
    ## #   otu_20 <dbl>, otu_21 <dbl>, otu_22 <dbl>, otu_23 <dbl>, otu_24 <dbl>,
    ## #   otu_25 <dbl>, otu_26 <dbl>, otu_27 <dbl>, otu_28 <dbl>, otu_29 <dbl>,
    ## #   otu_30 <dbl>, otu_31 <dbl>, otu_32 <dbl>, otu_33 <dbl>, otu_34 <dbl>,
    ## #   otu_35 <dbl>, otu_36 <dbl>, otu_37 <dbl>, otu_38 <dbl>, otu_39 <dbl>, …
    ## 
    ## $depth_spe_rfy
    ## [1] 64141
    ## 
    ## $spe_rfy
    ## # A tibble: 25 × 3,074
    ##    field_key otu_1 otu_2 otu_3 otu_4 otu_5 otu_6 otu_7 otu_8 otu_9 otu_10 otu_11
    ##        <dbl> <dbl> <dbl> <dbl> <dbl> <dbl> <dbl> <dbl> <dbl> <dbl>  <dbl>  <dbl>
    ##  1         1  1374  2585   100  3003   273  2013  4392  1082     0    738      0
    ##  2         2  4178  2293  1091    81   888   117   681     0    10   2228    198
    ##  3         3   525     7   498     0   747   393   369     0    29      0    639
    ##  4         4  2308    28     5     0  2104  2818  2045     0    83    871      0
    ##  5         5   614   155   535     0  1676  3303  5305     0    89   1157    194
    ##  6         6  1418   407   215     0   635   843  1256     0  3369      6   3188
    ##  7         7  1615  1688  1391     8   858  3112   113     0 10647      0    372
    ##  8         8  1885   688   913  1201  1103  1578  1932     0    33   1917    120
    ##  9         9  2240  1199  1099   853   235  1329  1060    22     0    606     66
    ## 10        10  1019  1006   932   507   273   920  1495  1746     0    356     26
    ## # ℹ 15 more rows
    ## # ℹ 3,062 more variables: otu_12 <dbl>, otu_13 <dbl>, otu_14 <dbl>,
    ## #   otu_15 <dbl>, otu_16 <dbl>, otu_17 <dbl>, otu_18 <dbl>, otu_19 <dbl>,
    ## #   otu_20 <dbl>, otu_21 <dbl>, otu_22 <dbl>, otu_23 <dbl>, otu_24 <dbl>,
    ## #   otu_25 <dbl>, otu_26 <dbl>, otu_27 <dbl>, otu_28 <dbl>, otu_29 <dbl>,
    ## #   otu_30 <dbl>, otu_31 <dbl>, otu_32 <dbl>, otu_33 <dbl>, otu_34 <dbl>,
    ## #   otu_35 <dbl>, otu_36 <dbl>, otu_37 <dbl>, otu_38 <dbl>, otu_39 <dbl>, …
…
    ## Warning in rrarefy(spe_samps_raw_df, depth_spe_samps_rfy): function should be
    ## used for observed counts, but smallest count is 2

    ## Warning in rrarefy(spe_raw_df, depth_spe_rfy): function should be used for
    ## observed counts, but smallest count is 2

``` r
amf
```

    ## $min_samples
    ## [1] 9
    ## 
    ## $spe_meta
    ## # A tibble: 152 × 8
    ##    otu_num otu_ID                       class order family genus taxon accession
    ##    <chr>   <chr>                        <chr> <chr> <chr>  <chr> <chr> <chr>    
    ##  1 otu_1   320f3edc7b48ba5691766ccc71b… Glom… Glom… Glome… Glom… Glom… VTX00212 
    ##  2 otu_2   97cefc055a2fa1b8caf5b81635b… Glom… Glom… Glome… Glom… Glom… VTX00135 
    ##  3 otu_3   2c47b9acb976f06611bddfe10f9… Para… Para… Parag… Para… <NA>  <NA>     
    ##  4 otu_4   7487be824e0acea7ee8c22b94f1… Glom… Glom… Glome… Glom… Glom… VTX00195 
    ##  5 otu_5   e8cbf85e2f78be8ff21c0c3e0f5… Glom… Glom… Glome… Glom… <NA>  <NA>     
    ##  6 otu_6   87ff74cc0f55f12dc4056a4a8a2… Glom… Glom… Claro… Clar… <NA>  <NA>     
    ##  7 otu_7   f10a50b1220da2d3e275f9772b3… Glom… Glom… Glome… Glom… Glom… VTX00222 
    ##  8 otu_8   0d508e08bf3048aa561e7c9d96e… Glom… Glom… Glome… Glom… Glom… VTX00315 
    ##  9 otu_9   4a4251fdd8c94240584c5d4ff6a… Glom… Glom… Glome… Glom… Glom… VTX00214 
    ## 10 otu_10  210c71717f87c8e4912431ed98b… Glom… Glom… Claro… Clar… Clar… VTX00056 
    ## # ℹ 142 more rows
    ## 
    ## $spe_samps_raw
    ## # A tibble: 225 × 154
    ##    field_key sample otu_1 otu_2 otu_3 otu_4 otu_5 otu_6 otu_7 otu_8 otu_9 otu_10
    ##    <chr>     <chr>  <dbl> <dbl> <dbl> <dbl> <dbl> <dbl> <dbl> <dbl> <dbl>  <dbl>
    ##  1 1         1        120   195    51     0   307   120    88   143     0     18
    ##  2 1         10       144   359   193     0   648    30    16   151     0     28
    ##  3 1         2        102   195   378   267  1006   275   120   171    61      0
    ##  4 1         4         17   279    30     0   395    16   184   894     0      0
    ##  5 1         5          0     0   486    30   566   223   550    33     0     16
    ##  6 1         6          0     0    44     0    39     0     0     0     0      0
    ##  7 1         7         55   111   275     0   516   110    21   148     0      0
    ##  8 1         8        130   505   129     0   113    26    55   758    26    110
    ##  9 1         9         23    35   118     0    29     0    60    84     0      0
    ## 10 10        1        399   256    38     0    10   190    59   599     0    321
    ## # ℹ 215 more rows
    ## # ℹ 142 more variables: otu_11 <dbl>, otu_12 <dbl>, otu_13 <dbl>, otu_14 <dbl>,
    ## #   otu_15 <dbl>, otu_16 <dbl>, otu_17 <dbl>, otu_18 <dbl>, otu_19 <dbl>,
    ## #   otu_20 <dbl>, otu_21 <dbl>, otu_22 <dbl>, otu_23 <dbl>, otu_24 <dbl>,
    ## #   otu_25 <dbl>, otu_26 <dbl>, otu_27 <dbl>, otu_28 <dbl>, otu_29 <dbl>,
    ## #   otu_30 <dbl>, otu_31 <dbl>, otu_32 <dbl>, otu_33 <dbl>, otu_34 <dbl>,
    ## #   otu_35 <dbl>, otu_36 <dbl>, otu_37 <dbl>, otu_38 <dbl>, otu_39 <dbl>, …
    ## 
    ## $depth_spe_samps_rfy
    ## [1] 163
    ## 
    ## $spe_samps_rfy
    ## # A tibble: 225 × 139
    ##    field_key sample otu_1 otu_2 otu_3 otu_4 otu_5 otu_6 otu_7 otu_8 otu_9 otu_10
    ##        <dbl>  <dbl> <dbl> <dbl> <dbl> <dbl> <dbl> <dbl> <dbl> <dbl> <dbl>  <dbl>
    ##  1         1      1    13    19     5     0    23     8    10    13     0      0
    ##  2         1      2     4    10    17     2    37     8     6     8     6      0
    ##  3         1      4     0    12     3     0    17     2     8    36     0      0
    ##  4         1      5     0     0    19     1    23    10    29     4     0      0
    ##  5         1      6     0     0    44     0    39     0     0     0     0      0
    ##  6         1      7     5    10    27     0    21     9     1    10     0      0
    ##  7         1      8     4    30     7     0    13     0     2    43     0      9
    ##  8         1      9     4    10    32     0    10     0    17    24     0      0
    ##  9         1     10     6    20    17     0    34     1     3     9     0      0
    ## 10         2      1    35     0    81     0     5    11     0     0     6      1
    ## # ℹ 215 more rows
    ## # ℹ 127 more variables: otu_11 <dbl>, otu_12 <dbl>, otu_13 <dbl>, otu_14 <dbl>,
    ## #   otu_15 <dbl>, otu_16 <dbl>, otu_17 <dbl>, otu_18 <dbl>, otu_19 <dbl>,
    ## #   otu_20 <dbl>, otu_21 <dbl>, otu_22 <dbl>, otu_23 <dbl>, otu_24 <dbl>,
    ## #   otu_25 <dbl>, otu_26 <dbl>, otu_27 <dbl>, otu_28 <dbl>, otu_29 <dbl>,
    ## #   otu_30 <dbl>, otu_31 <dbl>, otu_32 <dbl>, otu_33 <dbl>, otu_34 <dbl>,
    ## #   otu_35 <dbl>, otu_36 <dbl>, otu_37 <dbl>, otu_38 <dbl>, otu_39 <dbl>, …
    ## 
    ## $spe_raw
    ## # A tibble: 25 × 153
    ##    field_key otu_1 otu_2 otu_3 otu_4 otu_5 otu_6 otu_7 otu_8 otu_9 otu_10 otu_11
    ##        <dbl> <dbl> <dbl> <dbl> <dbl> <dbl> <dbl> <dbl> <dbl> <dbl>  <dbl>  <dbl>
    ##  1         1   591  1679  1704   297  3619   800  1094  2382    87    172   1485
    ##  2         2  5102    72 11494     0  5482  1552   690     0  1575   1469      0
    ##  3         3    44   370    31  4403  1677   759  2001     0   651     25      0
    ##  4         4  3960  4657     0  1223  1407  1376   707  2436  5684   2194    614
    ##  5         5  1058  3181    37    58  4505  1760  1078    18  2655   3749    127
    ##  6         6   742   134  6900  6012  1723  2200  3213     5   725    149      6
    ##  7         7    16     0  1860  1817  6286  1326   214   112   166      0      0
    ##  8         8  2504  3105   498  1181  2049  1896  2504  1475  1176   2419   3883
    ##  9         9  1246  2938   225  3035   521   635  1701  4710  1811   1587   5032
    ## 10        10  2255  1547   169  2511   282   737  1840  5165   265    783   2017
    ## # ℹ 15 more rows
    ## # ℹ 141 more variables: otu_12 <dbl>, otu_13 <dbl>, otu_14 <dbl>, otu_15 <dbl>,
    ## #   otu_16 <dbl>, otu_17 <dbl>, otu_18 <dbl>, otu_19 <dbl>, otu_20 <dbl>,
    ## #   otu_21 <dbl>, otu_22 <dbl>, otu_23 <dbl>, otu_24 <dbl>, otu_25 <dbl>,
    ## #   otu_26 <dbl>, otu_27 <dbl>, otu_28 <dbl>, otu_29 <dbl>, otu_30 <dbl>,
    ## #   otu_31 <dbl>, otu_32 <dbl>, otu_33 <dbl>, otu_34 <dbl>, otu_35 <dbl>,
    ## #   otu_36 <dbl>, otu_37 <dbl>, otu_38 <dbl>, otu_39 <dbl>, otu_40 <dbl>, …
    ## 
    ## $depth_spe_rfy
    ## [1] 19545
    ## 
    ## $spe_rfy
    ## # A tibble: 25 × 150
    ##    field_key otu_1 otu_2 otu_3 otu_4 otu_5 otu_6 otu_7 otu_8 otu_9 otu_10 otu_11
    ##        <dbl> <dbl> <dbl> <dbl> <dbl> <dbl> <dbl> <dbl> <dbl> <dbl>  <dbl>  <dbl>
    ##  1         1   505  1472  1480   260  3177   691   956  2077    78    150   1280
    ##  2         2  2173    33  4964     0  2344   675   312     0   692    645      0
    ##  3         3    29   202    17  2577   947   426  1196     0   405     17      0
    ##  4         4  1968  2330     0   610   701   681   355  1223  2862   1100    306
    ##  5         5   434  1382    21    25  1998   792   473     4  1193   1655     55
    ##  6         6   374    71  3470  2939   838  1083  1605     2   332     76      2
    ##  7         7    12     0  1229  1153  4040   839   150    73   104      0      0
    ##  8         8  1154  1428   225   569   953   857  1166   701   557   1169   1785
    ##  9         9   701  1632   130  1737   306   343   966  2682  1081    886   2893
    ## 10        10  1508  1058   123  1756   209   520  1244  3570   178    536   1398
    ## # ℹ 15 more rows
    ## # ℹ 138 more variables: otu_12 <dbl>, otu_13 <dbl>, otu_14 <dbl>, otu_15 <dbl>,
    ## #   otu_16 <dbl>, otu_17 <dbl>, otu_18 <dbl>, otu_19 <dbl>, otu_20 <dbl>,
    ## #   otu_21 <dbl>, otu_22 <dbl>, otu_23 <dbl>, otu_24 <dbl>, otu_25 <dbl>,
    ## #   otu_26 <dbl>, otu_27 <dbl>, otu_28 <dbl>, otu_29 <dbl>, otu_30 <dbl>,
    ## #   otu_31 <dbl>, otu_32 <dbl>, otu_33 <dbl>, otu_34 <dbl>, otu_35 <dbl>,
    ## #   otu_36 <dbl>, otu_37 <dbl>, otu_38 <dbl>, otu_39 <dbl>, otu_40 <dbl>, …
…
